event 1: access index 20
  event start: 2017-02-16 00:13:23.392295, event end: 2017-02-16 00:19:11.392295 (duration (s): 348.0)
  connects to sat4, downlink (MB): 7563.5722973
event 2: access index 41
  event start: 2017-02-16 00:41:35.610152, event end: 2017-02-16 00:44:38.610152 (duration (s): 183.0)
  connects to sat7, downlink (MB): 4014.51213545
event 3: access index 615
  event start: 2017-02-16 15:52:12.341813, event end: 2017-02-16 15:54:27.341813 (duration (s): 135.0)
  connects to sat1, downlink (MB): 2421.95260218
event 4: access index 623
  event start: 2017-02-16 16:04:41.983861, event end: 2017-02-16 16:06:01.983861 (duration (s): 80.0)
  connects to sat2, downlink (MB): 1512.55910112
event 5: access index 1012
  event start: 2017-02-16 21:49:43.829029, event end: 2017-02-16 21:58:58.829029 (duration (s): 555.0)
  connects to sat12, downlink (MB): 10986.8319456
event 6: access index 1082
  event start: 2017-02-16 22:52:22.597342, event end: 2017-02-16 23:01:17.597342 (duration (s): 535.0)
  connects to sat8, downlink (MB): 10136.5359585
Total: 6 events, downlinked (MB): 36635.96404015