event 1: access index 188
  event start: 2017-02-16 08:59:30.539662, event end: 2017-02-16 09:04:33.539662 (duration (s): 303.0)
  connects to sat8, downlink (MB): 4743.55356065
event 2: access index 852
  event start: 2017-02-16 19:58:17.358929, event end: 2017-02-16 20:04:58.358929 (duration (s): 401.0)
  connects to sat10, downlink (MB): 8043.32117725
event 3: access index 861
  event start: 2017-02-16 20:06:21.846583, event end: 2017-02-16 20:13:35.846583 (duration (s): 434.0)
  connects to sat11, downlink (MB): 9944.50882038
event 4: access index 930
  event start: 2017-02-16 20:53:02.726351, event end: 2017-02-16 21:02:03.726351 (duration (s): 541.0)
  connects to sat6, downlink (MB): 11257.4926965
event 5: access index 993
  event start: 2017-02-16 21:38:50.228241, event end: 2017-02-16 21:47:59.228241 (duration (s): 549.0)
  connects to sat11, downlink (MB): 12579.5745216
event 6: access index 1087
  event start: 2017-02-16 22:59:53.499019, event end: 2017-02-16 23:04:15.499019 (duration (s): 262.0)
  connects to sat9, downlink (MB): 5036.8386928
Total: 6 events, downlinked (MB): 51605.28946918