cost=-0.3962386303074827
solution=[1100, 731, 903, 1113, 207, 517, 1137, 839, 16, 28, 704, 710, 1012, 615, 623, 20, 41, 1082, 213, 1062, 624, 1127, 1107, 1121, 31, 8, 1044, 545, 718, 1058, 45, 5, 1019, 580, 1139, 921, 73, 63, 57, 143, 53, 59, 64, 60, 68, 124, 74, 109, 817, 155, 101, 96, 158, 144, 135, 87, 165, 132, 107, 153, 123, 169, 151, 93, 83, 163, 177, 798, 883, 768, 926, 983, 949, 842, 794, 973, 767, 332, 930, 188, 1087, 861, 852, 993, 305, 200, 394, 458, 192, 1119, 203, 245, 352, 407, 223, 330]
total downlinked(mb):715097.22990486
total lost imagery(mb):35206.105986