event 1: access index 63
  event start: 2017-02-16 02:43:15.172255, event end: 2017-02-16 02:51:14.172255 (duration (s): 479.0)
  connects to ground_site2_2, downlink (MB): 10975.6214861, lost imagery (MB): 0.0
event 2: access index 107
  event start: 2017-02-16 04:18:31.927656, event end: 2017-02-16 04:25:03.927656 (duration (s): 392.0)
  connects to ground_site3_2, downlink (MB): 8982.13699905, lost imagery (MB): 0.0
event 3: access index 158
  event start: 2017-02-16 05:52:37.633515, event end: 2017-02-16 05:58:35.633515 (duration (s): 358.0)
  connects to ground_site3_1, downlink (MB): 8203.07409607, lost imagery (MB): 0.0
event 4: access index 332
  event start: 2017-02-16 10:58:02.825157, event end: 2017-02-16 11:01:57.825157 (duration (s): 235.0)
  connects to ground_site4_2, downlink (MB): 4327.19947647, lost imagery (MB): 1057.5
event 5: access index 394
  event start: 2017-02-16 11:44:42.621833, event end: 2017-02-16 11:53:02.621833 (duration (s): 500.0)
  connects to ground_site6_1, downlink (MB): 10397.7253677, lost imagery (MB): 1059.082029
event 6: access index 517
  event start: 2017-02-16 14:01:36.036816, event end: 2017-02-16 14:08:53.036816 (duration (s): 437.0)
  connects to ground_site1_2a, downlink (MB): 8046.74966476, lost imagery (MB): 1966.5
event 7: access index 861
  event start: 2017-02-16 20:06:21.846583, event end: 2017-02-16 20:13:35.846583 (duration (s): 434.0)
  connects to ground_site5_1, downlink (MB): 9944.50882038, lost imagery (MB): 0.0
event 8: access index 993
  event start: 2017-02-16 21:38:50.228241, event end: 2017-02-16 21:47:59.228241 (duration (s): 549.0)
  connects to ground_site5_1, downlink (MB): 12579.5745216, lost imagery (MB): 0.0
event 9: access index 1107
  event start: 2017-02-16 23:17:29.709382, event end: 2017-02-16 23:25:51.709382 (duration (s): 502.0)
  connects to ground_site1_1, downlink (MB): 10942.2967323, lost imagery (MB): 560.337894
Total: 9 events, downlinked (MB): 84398.88716443001, lost imagery (MB): 4643.419923