event 1: access index 31
  event start: 2017-02-16 00:27:02.953810, event end: 2017-02-16 00:31:43.953810 (duration (s): 281.0)
  connects to ground_site1_1a, downlink (MB): 5701.52355646, lost imagery (MB): 145.71387
event 2: access index 53
  event start: 2017-02-16 01:59:31.157980, event end: 2017-02-16 02:03:51.157980 (duration (s): 260.0)
  connects to ground_site2_2, downlink (MB): 5410.25527003, lost imagery (MB): 0.0
event 3: access index 83
  event start: 2017-02-16 03:35:03.773438, event end: 2017-02-16 03:37:15.773438 (duration (s): 132.0)
  connects to ground_site3_3, downlink (MB): 2746.74498325, lost imagery (MB): 0.0
event 4: access index 143
  event start: 2017-02-16 05:06:15.937043, event end: 2017-02-16 05:11:45.937043 (duration (s): 330.0)
  connects to ground_site2_2, downlink (MB): 6866.86245811, lost imagery (MB): 0.0
event 5: access index 203
  event start: 2017-02-16 09:26:04.004640, event end: 2017-02-16 09:31:40.004640 (duration (s): 336.0)
  connects to ground_site6_2, downlink (MB): 6604.85512781, lost imagery (MB): 386.859375
event 6: access index 798
  event start: 2017-02-16 19:20:49.618940, event end: 2017-02-16 19:26:13.618940 (duration (s): 324.0)
  connects to ground_site4_1, downlink (MB): 6742.01041342, lost imagery (MB): 0.0
event 7: access index 930
  event start: 2017-02-16 20:53:02.726351, event end: 2017-02-16 21:02:03.726351 (duration (s): 541.0)
  connects to ground_site5_1, downlink (MB): 11257.4926965, lost imagery (MB): 0.0
event 8: access index 1062
  event start: 2017-02-16 22:30:56.789694, event end: 2017-02-16 22:40:06.789694 (duration (s): 550.0)
  connects to ground_site1_1, downlink (MB): 10731.7580665, lost imagery (MB): 713.012697
Total: 8 events, downlinked (MB): 56061.50257208, lost imagery (MB): 1245.5859420000002