event 1: access index 41
  event start: 2017-02-16 00:41:35.610152, event end: 2017-02-16 00:44:38.610152 (duration (s): 183.0)
  connects to ground_site1_2c, downlink (MB): 4014.51213545, lost imagery (MB): 0.0
event 2: access index 87
  event start: 2017-02-16 03:47:24.103562, event end: 2017-02-16 03:51:36.103562 (duration (s): 252.0)
  connects to ground_site3_2, downlink (MB): 5528.18064554, lost imagery (MB): 0.0
event 3: access index 144
  event start: 2017-02-16 05:19:15.644433, event end: 2017-02-16 05:26:31.644433 (duration (s): 436.0)
  connects to ground_site3_1, downlink (MB): 9564.63000577, lost imagery (MB): 0.0
event 4: access index 223
  event start: 2017-02-16 09:38:58.346802, event end: 2017-02-16 09:45:54.346802 (duration (s): 416.0)
  connects to ground_site6_2, downlink (MB): 8566.47926009, lost imagery (MB): 559.40625
event 5: access index 352
  event start: 2017-02-16 11:11:51.190953, event end: 2017-02-16 11:21:11.190953 (duration (s): 560.0)
  connects to ground_site6_2, downlink (MB): 11234.0255665, lost imagery (MB): 1050.8203125
event 6: access index 458
  event start: 2017-02-16 12:48:33.131980, event end: 2017-02-16 12:50:12.131980 (duration (s): 99.0)
  connects to ground_site6_1, downlink (MB): 1726.2852536, lost imagery (MB): 445.5
event 7: access index 704
  event start: 2017-02-16 18:09:17.248974, event end: 2017-02-16 18:10:27.248974 (duration (s): 70.0)
  connects to ground_site1_2b, downlink (MB): 1220.60573487, lost imagery (MB): 315.0
event 8: access index 949
  event start: 2017-02-16 21:07:12.335061, event end: 2017-02-16 21:13:48.335061 (duration (s): 396.0)
  connects to ground_site4_2, downlink (MB): 8687.14101441, lost imagery (MB): 0.0
event 9: access index 1119
  event start: 2017-02-16 23:29:43.176388, event end: 2017-02-16 23:33:09.176388 (duration (s): 206.0)
  connects to ground_site6_1, downlink (MB): 3592.06830548, lost imagery (MB): 927.0
Total: 9 events, downlinked (MB): 54133.927921710005, lost imagery (MB): 3297.7265625